^C:\USERS\TNPES\DOCUMENTS\JUCE\PROJECTS\GAIN\JUCELIBRARYCODE\INCLUDE_JUCE_AUDIO_PLUGIN_CLIENT_STANDALONE.CPP
C:\USERS\TNPES\DOCUMENTS\JUCE\PROJECTS\GAIN\BUILDS\VISUALSTUDIO2017\WIN32\DEBUG\STANDALONE PLUGIN\VC141.PDB
C:\USERS\TNPES\DOCUMENTS\JUCE\PROJECTS\GAIN\BUILDS\VISUALSTUDIO2017\WIN32\DEBUG\STANDALONE PLUGIN\INCLUDE_JUCE_AUDIO_PLUGIN_CLIENT_STANDALONE.OBJ
