^C:\USERS\TNPES\DOCUMENTS\JUCE\PROJECTS\GAIN\BUILDS\VISUALSTUDIO2017\WIN32\DEBUG\STANDALONE PLUGIN\INCLUDE_JUCE_AUDIO_PLUGIN_CLIENT_STANDALONE.OBJ|C:\USERS\TNPES\DOCUMENTS\JUCE\PROJECTS\GAIN\BUILDS\VISUALSTUDIO2017\WIN32\DEBUG\STANDALONE PLUGIN\RESOURCES.RES
C:\USERS\TNPES\DOCUMENTS\JUCE\PROJECTS\GAIN\BUILDS\VISUALSTUDIO2017\WIN32\DEBUG\STANDALONE PLUGIN\GAIN.EXE
C:\USERS\TNPES\DOCUMENTS\JUCE\PROJECTS\GAIN\BUILDS\VISUALSTUDIO2017\WIN32\DEBUG\STANDALONE PLUGIN\GAIN.ILK
C:\USERS\TNPES\DOCUMENTS\JUCE\PROJECTS\GAIN\BUILDS\VISUALSTUDIO2017\WIN32\DEBUG\STANDALONE PLUGIN\GAIN.PDB
