^C:\Users\tnpes\Documents\JUCE\projects\Reverb\Builds\VisualStudio2017\Reverb_VST.vcxproj
C:\Users\tnpes\Documents\JUCE\projects\Reverb\Builds\VisualStudio2017\Win32\Debug\VST\Reverb.lib
C:\Users\tnpes\Documents\JUCE\projects\Reverb\Builds\VisualStudio2017\Win32\Debug\VST\Reverb.exp
^C:\Users\tnpes\Documents\JUCE\projects\Reverb\Builds\VisualStudio2017\Reverb_VST.vcxproj
C:\Users\tnpes\Documents\JUCE\projects\Reverb\Builds\VisualStudio2017\Win32\Debug\VST\Reverb.lib
C:\Users\tnpes\Documents\JUCE\projects\Reverb\Builds\VisualStudio2017\Win32\Debug\VST\Reverb.exp
^C:\Users\tnpes\Documents\JUCE\projects\Reverb\Builds\VisualStudio2017\Reverb_VST.vcxproj
C:\Users\tnpes\Documents\JUCE\projects\Reverb\Builds\VisualStudio2017\Win32\Debug\VST\Reverb.lib
C:\Users\tnpes\Documents\JUCE\projects\Reverb\Builds\VisualStudio2017\Win32\Debug\VST\Reverb.exp
^C:\Users\tnpes\Documents\JUCE\projects\Reverb\Builds\VisualStudio2017\Reverb_VST.vcxproj
C:\Users\tnpes\Documents\JUCE\projects\Reverb\Builds\VisualStudio2017\Win32\Debug\VST\Reverb.lib
C:\Users\tnpes\Documents\JUCE\projects\Reverb\Builds\VisualStudio2017\Win32\Debug\VST\Reverb.exp
^C:\Users\tnpes\Documents\JUCE\projects\Reverb\Builds\VisualStudio2017\Reverb_VST.vcxproj
C:\Users\tnpes\Documents\JUCE\projects\Reverb\Builds\VisualStudio2017\Win32\Debug\VST\Reverb.lib
C:\Users\tnpes\Documents\JUCE\projects\Reverb\Builds\VisualStudio2017\Win32\Debug\VST\Reverb.exp
^C:\Users\tnpes\Documents\JUCE\projects\Reverb\Builds\VisualStudio2017\Reverb_VST.vcxproj
C:\Users\tnpes\Documents\JUCE\projects\Reverb\Builds\VisualStudio2017\Win32\Debug\VST\Reverb.lib
C:\Users\tnpes\Documents\JUCE\projects\Reverb\Builds\VisualStudio2017\Win32\Debug\VST\Reverb.exp
^C:\Users\tnpes\Documents\JUCE\projects\Reverb\Builds\VisualStudio2017\Reverb_VST.vcxproj
C:\Users\tnpes\Documents\JUCE\projects\Reverb\Builds\VisualStudio2017\Win32\Debug\VST\Reverb.lib
C:\Users\tnpes\Documents\JUCE\projects\Reverb\Builds\VisualStudio2017\Win32\Debug\VST\Reverb.exp
^C:\Users\tnpes\Documents\JUCE\projects\Reverb\Builds\VisualStudio2017\Reverb_VST.vcxproj
C:\Users\tnpes\Documents\JUCE\projects\Reverb\Builds\VisualStudio2017\Win32\Debug\VST\Reverb.lib
C:\Users\tnpes\Documents\JUCE\projects\Reverb\Builds\VisualStudio2017\Win32\Debug\VST\Reverb.exp
^C:\Users\tnpes\Documents\JUCE\projects\Reverb\Builds\VisualStudio2017\Reverb_VST.vcxproj
C:\Users\tnpes\Documents\JUCE\projects\Reverb\Builds\VisualStudio2017\Win32\Debug\VST\Reverb.lib
C:\Users\tnpes\Documents\JUCE\projects\Reverb\Builds\VisualStudio2017\Win32\Debug\VST\Reverb.exp
^C:\Users\tnpes\Documents\JUCE\projects\Reverb\Builds\VisualStudio2017\Reverb_VST.vcxproj
C:\Users\tnpes\Documents\JUCE\projects\Reverb\Builds\VisualStudio2017\Win32\Debug\VST\Reverb.lib
C:\Users\tnpes\Documents\JUCE\projects\Reverb\Builds\VisualStudio2017\Win32\Debug\VST\Reverb.exp
