^C:\USERS\TNPES\DOCUMENTS\JUCE\PROJECTS\GAIN\SOURCE\PLUGINEDITOR.CPP|C:\USERS\TNPES\DOCUMENTS\JUCE\PROJECTS\GAIN\SOURCE\PLUGINPROCESSOR.CPP
C:\USERS\TNPES\DOCUMENTS\JUCE\PROJECTS\GAIN\BUILDS\VISUALSTUDIO2017\WIN32\DEBUG\SHARED CODE\PLUGINPROCESSOR.OBJ
C:\USERS\TNPES\DOCUMENTS\JUCE\PROJECTS\GAIN\BUILDS\VISUALSTUDIO2017\WIN32\DEBUG\SHARED CODE\PLUGINEDITOR.OBJ
^C:\USERS\TNPES\DOCUMENTS\JUCE\PROJECTS\GAIN\JUCELIBRARYCODE\INCLUDE_JUCE_AUDIO_BASICS.CPP|C:\USERS\TNPES\DOCUMENTS\JUCE\PROJECTS\GAIN\JUCELIBRARYCODE\INCLUDE_JUCE_AUDIO_DEVICES.CPP|C:\USERS\TNPES\DOCUMENTS\JUCE\PROJECTS\GAIN\JUCELIBRARYCODE\INCLUDE_JUCE_AUDIO_FORMATS.CPP|C:\USERS\TNPES\DOCUMENTS\JUCE\PROJECTS\GAIN\JUCELIBRARYCODE\INCLUDE_JUCE_AUDIO_PLUGIN_CLIENT_UTILS.CPP|C:\USERS\TNPES\DOCUMENTS\JUCE\PROJECTS\GAIN\JUCELIBRARYCODE\INCLUDE_JUCE_AUDIO_PROCESSORS.CPP|C:\USERS\TNPES\DOCUMENTS\JUCE\PROJECTS\GAIN\JUCELIBRARYCODE\INCLUDE_JUCE_AUDIO_UTILS.CPP|C:\USERS\TNPES\DOCUMENTS\JUCE\PROJECTS\GAIN\JUCELIBRARYCODE\INCLUDE_JUCE_CORE.CPP|C:\USERS\TNPES\DOCUMENTS\JUCE\PROJECTS\GAIN\JUCELIBRARYCODE\INCLUDE_JUCE_CRYPTOGRAPHY.CPP|C:\USERS\TNPES\DOCUMENTS\JUCE\PROJECTS\GAIN\JUCELIBRARYCODE\INCLUDE_JUCE_DATA_STRUCTURES.CPP|C:\USERS\TNPES\DOCUMENTS\JUCE\PROJECTS\GAIN\JUCELIBRARYCODE\INCLUDE_JUCE_EVENTS.CPP|C:\USERS\TNPES\DOCUMENTS\JUCE\PROJECTS\GAIN\JUCELIBRARYCODE\INCLUDE_JUCE_GRAPHICS.CPP|C:\USERS\TNPES\DOCUMENTS\JUCE\PROJECTS\GAIN\JUCELIBRARYCODE\INCLUDE_JUCE_GUI_BASICS.CPP|C:\USERS\TNPES\DOCUMENTS\JUCE\PROJECTS\GAIN\JUCELIBRARYCODE\INCLUDE_JUCE_GUI_EXTRA.CPP|C:\USERS\TNPES\DOCUMENTS\JUCE\PROJECTS\GAIN\JUCELIBRARYCODE\INCLUDE_JUCE_OPENGL.CPP|C:\USERS\TNPES\DOCUMENTS\JUCE\PROJECTS\GAIN\JUCELIBRARYCODE\INCLUDE_JUCE_VIDEO.CPP|C:\USERS\TNPES\DOCUMENTS\JUCE\PROJECTS\GAIN\SOURCE\PLUGINEDITOR.CPP|C:\USERS\TNPES\DOCUMENTS\JUCE\PROJECTS\GAIN\SOURCE\PLUGINPROCESSOR.CPP
C:\USERS\TNPES\DOCUMENTS\JUCE\PROJECTS\GAIN\BUILDS\VISUALSTUDIO2017\WIN32\DEBUG\SHARED CODE\INCLUDE_JUCE_AUDIO_PLUGIN_CLIENT_UTILS.OBJ
C:\USERS\TNPES\DOCUMENTS\JUCE\PROJECTS\GAIN\BUILDS\VISUALSTUDIO2017\WIN32\DEBUG\SHARED CODE\INCLUDE_JUCE_CORE.OBJ
C:\USERS\TNPES\DOCUMENTS\JUCE\PROJECTS\GAIN\BUILDS\VISUALSTUDIO2017\WIN32\DEBUG\SHARED CODE\INCLUDE_JUCE_OPENGL.OBJ
C:\USERS\TNPES\DOCUMENTS\JUCE\PROJECTS\GAIN\BUILDS\VISUALSTUDIO2017\WIN32\DEBUG\SHARED CODE\PLUGINPROCESSOR.OBJ
C:\USERS\TNPES\DOCUMENTS\JUCE\PROJECTS\GAIN\BUILDS\VISUALSTUDIO2017\WIN32\DEBUG\SHARED CODE\INCLUDE_JUCE_AUDIO_DEVICES.OBJ
C:\USERS\TNPES\DOCUMENTS\JUCE\PROJECTS\GAIN\BUILDS\VISUALSTUDIO2017\WIN32\DEBUG\SHARED CODE\INCLUDE_JUCE_AUDIO_UTILS.OBJ
C:\USERS\TNPES\DOCUMENTS\JUCE\PROJECTS\GAIN\BUILDS\VISUALSTUDIO2017\WIN32\DEBUG\SHARED CODE\INCLUDE_JUCE_GUI_BASICS.OBJ
C:\USERS\TNPES\DOCUMENTS\JUCE\PROJECTS\GAIN\BUILDS\VISUALSTUDIO2017\WIN32\DEBUG\SHARED CODE\INCLUDE_JUCE_AUDIO_FORMATS.OBJ
C:\USERS\TNPES\DOCUMENTS\JUCE\PROJECTS\GAIN\BUILDS\VISUALSTUDIO2017\WIN32\DEBUG\SHARED CODE\INCLUDE_JUCE_CRYPTOGRAPHY.OBJ
C:\USERS\TNPES\DOCUMENTS\JUCE\PROJECTS\GAIN\BUILDS\VISUALSTUDIO2017\WIN32\DEBUG\SHARED CODE\INCLUDE_JUCE_DATA_STRUCTURES.OBJ
C:\USERS\TNPES\DOCUMENTS\JUCE\PROJECTS\GAIN\BUILDS\VISUALSTUDIO2017\WIN32\DEBUG\SHARED CODE\INCLUDE_JUCE_EVENTS.OBJ
C:\USERS\TNPES\DOCUMENTS\JUCE\PROJECTS\GAIN\BUILDS\VISUALSTUDIO2017\WIN32\DEBUG\SHARED CODE\INCLUDE_JUCE_GUI_EXTRA.OBJ
C:\USERS\TNPES\DOCUMENTS\JUCE\PROJECTS\GAIN\BUILDS\VISUALSTUDIO2017\WIN32\DEBUG\SHARED CODE\INCLUDE_JUCE_VIDEO.OBJ
C:\USERS\TNPES\DOCUMENTS\JUCE\PROJECTS\GAIN\BUILDS\VISUALSTUDIO2017\WIN32\DEBUG\SHARED CODE\INCLUDE_JUCE_AUDIO_BASICS.OBJ
C:\USERS\TNPES\DOCUMENTS\JUCE\PROJECTS\GAIN\BUILDS\VISUALSTUDIO2017\WIN32\DEBUG\SHARED CODE\INCLUDE_JUCE_AUDIO_PROCESSORS.OBJ
C:\USERS\TNPES\DOCUMENTS\JUCE\PROJECTS\GAIN\BUILDS\VISUALSTUDIO2017\WIN32\DEBUG\SHARED CODE\INCLUDE_JUCE_GRAPHICS.OBJ
C:\USERS\TNPES\DOCUMENTS\JUCE\PROJECTS\GAIN\BUILDS\VISUALSTUDIO2017\WIN32\DEBUG\SHARED CODE\PLUGINEDITOR.OBJ
^C:\USERS\TNPES\DOCUMENTS\JUCE\PROJECTS\GAIN\JUCELIBRARYCODE\INCLUDE_JUCE_AUDIO_BASICS.CPP
C:\USERS\TNPES\DOCUMENTS\JUCE\PROJECTS\GAIN\BUILDS\VISUALSTUDIO2017\WIN32\DEBUG\SHARED CODE\GAIN_SHAREDCODE.PDB
^C:\USERS\TNPES\DOCUMENTS\JUCE\PROJECTS\GAIN\JUCELIBRARYCODE\INCLUDE_JUCE_AUDIO_DEVICES.CPP
C:\USERS\TNPES\DOCUMENTS\JUCE\PROJECTS\GAIN\BUILDS\VISUALSTUDIO2017\WIN32\DEBUG\SHARED CODE\GAIN_SHAREDCODE.PDB
^C:\USERS\TNPES\DOCUMENTS\JUCE\PROJECTS\GAIN\JUCELIBRARYCODE\INCLUDE_JUCE_AUDIO_FORMATS.CPP
C:\USERS\TNPES\DOCUMENTS\JUCE\PROJECTS\GAIN\BUILDS\VISUALSTUDIO2017\WIN32\DEBUG\SHARED CODE\GAIN_SHAREDCODE.PDB
^C:\USERS\TNPES\DOCUMENTS\JUCE\PROJECTS\GAIN\JUCELIBRARYCODE\INCLUDE_JUCE_AUDIO_PLUGIN_CLIENT_UTILS.CPP
C:\USERS\TNPES\DOCUMENTS\JUCE\PROJECTS\GAIN\BUILDS\VISUALSTUDIO2017\WIN32\DEBUG\SHARED CODE\GAIN_SHAREDCODE.PDB
^C:\USERS\TNPES\DOCUMENTS\JUCE\PROJECTS\GAIN\JUCELIBRARYCODE\INCLUDE_JUCE_AUDIO_PROCESSORS.CPP
C:\USERS\TNPES\DOCUMENTS\JUCE\PROJECTS\GAIN\BUILDS\VISUALSTUDIO2017\WIN32\DEBUG\SHARED CODE\GAIN_SHAREDCODE.PDB
^C:\USERS\TNPES\DOCUMENTS\JUCE\PROJECTS\GAIN\JUCELIBRARYCODE\INCLUDE_JUCE_AUDIO_UTILS.CPP
C:\USERS\TNPES\DOCUMENTS\JUCE\PROJECTS\GAIN\BUILDS\VISUALSTUDIO2017\WIN32\DEBUG\SHARED CODE\GAIN_SHAREDCODE.PDB
^C:\USERS\TNPES\DOCUMENTS\JUCE\PROJECTS\GAIN\JUCELIBRARYCODE\INCLUDE_JUCE_CORE.CPP
C:\USERS\TNPES\DOCUMENTS\JUCE\PROJECTS\GAIN\BUILDS\VISUALSTUDIO2017\WIN32\DEBUG\SHARED CODE\GAIN_SHAREDCODE.PDB
^C:\USERS\TNPES\DOCUMENTS\JUCE\PROJECTS\GAIN\JUCELIBRARYCODE\INCLUDE_JUCE_CRYPTOGRAPHY.CPP
C:\USERS\TNPES\DOCUMENTS\JUCE\PROJECTS\GAIN\BUILDS\VISUALSTUDIO2017\WIN32\DEBUG\SHARED CODE\GAIN_SHAREDCODE.PDB
^C:\USERS\TNPES\DOCUMENTS\JUCE\PROJECTS\GAIN\JUCELIBRARYCODE\INCLUDE_JUCE_DATA_STRUCTURES.CPP
C:\USERS\TNPES\DOCUMENTS\JUCE\PROJECTS\GAIN\BUILDS\VISUALSTUDIO2017\WIN32\DEBUG\SHARED CODE\GAIN_SHAREDCODE.PDB
^C:\USERS\TNPES\DOCUMENTS\JUCE\PROJECTS\GAIN\JUCELIBRARYCODE\INCLUDE_JUCE_EVENTS.CPP
C:\USERS\TNPES\DOCUMENTS\JUCE\PROJECTS\GAIN\BUILDS\VISUALSTUDIO2017\WIN32\DEBUG\SHARED CODE\GAIN_SHAREDCODE.PDB
^C:\USERS\TNPES\DOCUMENTS\JUCE\PROJECTS\GAIN\JUCELIBRARYCODE\INCLUDE_JUCE_GRAPHICS.CPP
C:\USERS\TNPES\DOCUMENTS\JUCE\PROJECTS\GAIN\BUILDS\VISUALSTUDIO2017\WIN32\DEBUG\SHARED CODE\GAIN_SHAREDCODE.PDB
^C:\USERS\TNPES\DOCUMENTS\JUCE\PROJECTS\GAIN\JUCELIBRARYCODE\INCLUDE_JUCE_GUI_BASICS.CPP
C:\USERS\TNPES\DOCUMENTS\JUCE\PROJECTS\GAIN\BUILDS\VISUALSTUDIO2017\WIN32\DEBUG\SHARED CODE\GAIN_SHAREDCODE.PDB
^C:\USERS\TNPES\DOCUMENTS\JUCE\PROJECTS\GAIN\JUCELIBRARYCODE\INCLUDE_JUCE_GUI_EXTRA.CPP
C:\USERS\TNPES\DOCUMENTS\JUCE\PROJECTS\GAIN\BUILDS\VISUALSTUDIO2017\WIN32\DEBUG\SHARED CODE\GAIN_SHAREDCODE.PDB
^C:\USERS\TNPES\DOCUMENTS\JUCE\PROJECTS\GAIN\JUCELIBRARYCODE\INCLUDE_JUCE_OPENGL.CPP
C:\USERS\TNPES\DOCUMENTS\JUCE\PROJECTS\GAIN\BUILDS\VISUALSTUDIO2017\WIN32\DEBUG\SHARED CODE\GAIN_SHAREDCODE.PDB
^C:\USERS\TNPES\DOCUMENTS\JUCE\PROJECTS\GAIN\JUCELIBRARYCODE\INCLUDE_JUCE_VIDEO.CPP
C:\USERS\TNPES\DOCUMENTS\JUCE\PROJECTS\GAIN\BUILDS\VISUALSTUDIO2017\WIN32\DEBUG\SHARED CODE\GAIN_SHAREDCODE.PDB
^C:\USERS\TNPES\DOCUMENTS\JUCE\PROJECTS\GAIN\SOURCE\PLUGINEDITOR.CPP
C:\USERS\TNPES\DOCUMENTS\JUCE\PROJECTS\GAIN\BUILDS\VISUALSTUDIO2017\WIN32\DEBUG\SHARED CODE\GAIN_SHAREDCODE.PDB
^C:\USERS\TNPES\DOCUMENTS\JUCE\PROJECTS\GAIN\SOURCE\PLUGINPROCESSOR.CPP
C:\USERS\TNPES\DOCUMENTS\JUCE\PROJECTS\GAIN\BUILDS\VISUALSTUDIO2017\WIN32\DEBUG\SHARED CODE\GAIN_SHAREDCODE.PDB
C:\USERS\TNPES\DOCUMENTS\JUCE\PROJECTS\GAIN\BUILDS\VISUALSTUDIO2017\WIN32\DEBUG\SHARED CODE\PLUGINPROCESSOR.OBJ
