^C:\USERS\TNPES\DOCUMENTS\JUCE\PROJECTS\GAIN\JUCELIBRARYCODE\INCLUDE_JUCE_AUDIO_PLUGIN_CLIENT_VST2.CPP
C:\USERS\TNPES\DOCUMENTS\JUCE\PROJECTS\GAIN\BUILDS\VISUALSTUDIO2017\WIN32\DEBUG\VST\VC141.PDB
C:\USERS\TNPES\DOCUMENTS\JUCE\PROJECTS\GAIN\BUILDS\VISUALSTUDIO2017\WIN32\DEBUG\VST\INCLUDE_JUCE_AUDIO_PLUGIN_CLIENT_VST2.OBJ
